%YAML 1.1
%TAG !u! tag:unity3d.com,2011:
--- !u!114 &11400000
MonoBehaviour:
  m_ObjectHideFlags: 0
  m_CorrespondingSourceObject: {fileID: 0}
  m_PrefabInstance: {fileID: 0}
  m_PrefabAsset: {fileID: 0}
  m_GameObject: {fileID: 0}
  m_Enabled: 1
  m_EditorHideFlags: 0
  m_Script: {fileID: 11500000, guid: 047d9a4378781e341bf1ed82d95cd6bf, type: 3}
  m_Name: BaseWeapon
  m_EditorClassIdentifier: 
  WeaponStats:
    statPreset: {fileID: 11400000, guid: c3e973c79b86bce4baa51c41a80251bb, type: 2}
    Stats: []
    BaseProjectile: {fileID: 2203432370864391487, guid: ee10f5fb3f2406d4ba974e0e01d1ddd3, type: 3}
    FlagManager:
      BaseFlags: 0
    ShootEffect: 3
    ShootEffectPrefab: {fileID: 7281819269557766829, guid: b1a80c72e65bca14fbaa8714642db85f, type: 3}
