%YAML 1.1
%TAG !u! tag:unity3d.com,2011:
--- !u!114 &11400000
MonoBehaviour:
  m_ObjectHideFlags: 0
  m_CorrespondingSourceObject: {fileID: 0}
  m_PrefabInstance: {fileID: 0}
  m_PrefabAsset: {fileID: 0}
  m_GameObject: {fileID: 0}
  m_Enabled: 1
  m_EditorHideFlags: 0
  m_Script: {fileID: 11500000, guid: 047d9a4378781e341bf1ed82d95cd6bf, type: 3}
  m_Name: TonkWeapon
  m_EditorClassIdentifier: 
  WeaponStats:
    statPreset: {fileID: 11400000, guid: dec3f385a40988c40860c09a160e2e76, type: 2}
    Stats: []
    BaseProjectile: {fileID: 2203432370864391487, guid: 4639832e5af48834bbf56a77ddde2a82, type: 3}
    FlagManager:
      BaseFlags: 0
    ShootEffect: 3
    ShootEffectPrefab: {fileID: 7281819269557766829, guid: 0636a89585029fe478cada7285f22cef, type: 3}
