%YAML 1.1
%TAG !u! tag:unity3d.com,2011:
--- !u!1 &2817787340996654127
GameObject:
  m_ObjectHideFlags: 0
  m_CorrespondingSourceObject: {fileID: 0}
  m_PrefabInstance: {fileID: 0}
  m_PrefabAsset: {fileID: 0}
  serializedVersion: 6
  m_Component:
  - component: {fileID: 3193362218787991189}
  - component: {fileID: 2017262514106917168}
  - component: {fileID: 4330834295126824442}
  - component: {fileID: 101885985879395555}
  m_Layer: 0
  m_Name: RightWall
  m_TagString: Untagged
  m_Icon: {fileID: 0}
  m_NavMeshLayer: 0
  m_StaticEditorFlags: 0
  m_IsActive: 1
--- !u!4 &3193362218787991189
Transform:
  m_ObjectHideFlags: 0
  m_CorrespondingSourceObject: {fileID: 0}
  m_PrefabInstance: {fileID: 0}
  m_PrefabAsset: {fileID: 0}
  m_GameObject: {fileID: 2817787340996654127}
  m_LocalRotation: {x: -0, y: -0.00000008940697, z: 1, w: 0}
  m_LocalPosition: {x: -0.000019842746, y: -0.009859781, z: 0}
  m_LocalScale: {x: 0.0009835557, y: 0.0009123701, z: 0.00014135854}
  m_Children:
  - {fileID: 6801335849412503146}
  - {fileID: 6331624795637140393}
  m_Father: {fileID: 0}
  m_RootOrder: 0
  m_LocalEulerAnglesHint: {x: -90, y: 180, z: 0}
--- !u!33 &2017262514106917168
MeshFilter:
  m_ObjectHideFlags: 0
  m_CorrespondingSourceObject: {fileID: 0}
  m_PrefabInstance: {fileID: 0}
  m_PrefabAsset: {fileID: 0}
  m_GameObject: {fileID: 2817787340996654127}
  m_Mesh: {fileID: -1074788123389593634, guid: 7b457c0cf4e1be24aaf39241bf1410cc, type: 3}
--- !u!23 &4330834295126824442
MeshRenderer:
  m_ObjectHideFlags: 0
  m_CorrespondingSourceObject: {fileID: 0}
  m_PrefabInstance: {fileID: 0}
  m_PrefabAsset: {fileID: 0}
  m_GameObject: {fileID: 2817787340996654127}
  m_Enabled: 1
  m_CastShadows: 1
  m_ReceiveShadows: 1
  m_DynamicOccludee: 1
  m_MotionVectors: 1
  m_LightProbeUsage: 1
  m_ReflectionProbeUsage: 1
  m_RayTracingMode: 2
  m_RayTraceProcedural: 0
  m_RenderingLayerMask: 1
  m_RendererPriority: 0
  m_Materials:
  - {fileID: 2100000, guid: b8bb7751154f5634090dc951dd4bda4d, type: 2}
  m_StaticBatchInfo:
    firstSubMesh: 0
    subMeshCount: 0
  m_StaticBatchRoot: {fileID: 0}
  m_ProbeAnchor: {fileID: 0}
  m_LightProbeVolumeOverride: {fileID: 0}
  m_ScaleInLightmap: 1
  m_ReceiveGI: 1
  m_PreserveUVs: 0
  m_IgnoreNormalsForChartDetection: 0
  m_ImportantGI: 0
  m_StitchLightmapSeams: 1
  m_SelectedEditorRenderState: 3
  m_MinimumChartSize: 4
  m_AutoUVMaxDistance: 0.5
  m_AutoUVMaxAngle: 89
  m_LightmapParameters: {fileID: 0}
  m_SortingLayerID: 0
  m_SortingLayer: 0
  m_SortingOrder: 0
  m_AdditionalVertexStreams: {fileID: 0}
--- !u!65 &101885985879395555
BoxCollider:
  m_ObjectHideFlags: 0
  m_CorrespondingSourceObject: {fileID: 0}
  m_PrefabInstance: {fileID: 0}
  m_PrefabAsset: {fileID: 0}
  m_GameObject: {fileID: 2817787340996654127}
  m_Material: {fileID: 0}
  m_IsTrigger: 0
  m_Enabled: 1
  serializedVersion: 2
  m_Size: {x: 20.685856, y: 0.15499984, z: 18.29019}
  m_Center: {x: -0.020356784, y: -0.0000019039646, z: 9.145128}
--- !u!1001 &7202600068318420353
PrefabInstance:
  m_ObjectHideFlags: 0
  serializedVersion: 2
  m_Modification:
    m_TransformParent: {fileID: 3193362218787991189}
    m_Modifications:
    - target: {fileID: 3953075113116442961, guid: e0637a84c8bf6af48b71da1312ea6aae, type: 3}
      propertyPath: m_Name
      value: ThreePartWall (3)
      objectReference: {fileID: 0}
    - target: {fileID: 4438284729955810283, guid: e0637a84c8bf6af48b71da1312ea6aae, type: 3}
      propertyPath: m_RootOrder
      value: 0
      objectReference: {fileID: 0}
    - target: {fileID: 4438284729955810283, guid: e0637a84c8bf6af48b71da1312ea6aae, type: 3}
      propertyPath: m_LocalScale.x
      value: 1.4067072
      objectReference: {fileID: 0}
    - target: {fileID: 4438284729955810283, guid: e0637a84c8bf6af48b71da1312ea6aae, type: 3}
      propertyPath: m_LocalScale.y
      value: 0.7341409
      objectReference: {fileID: 0}
    - target: {fileID: 4438284729955810283, guid: e0637a84c8bf6af48b71da1312ea6aae, type: 3}
      propertyPath: m_LocalScale.z
      value: 0.99145645
      objectReference: {fileID: 0}
    - target: {fileID: 4438284729955810283, guid: e0637a84c8bf6af48b71da1312ea6aae, type: 3}
      propertyPath: m_LocalPosition.x
      value: -2.6290123
      objectReference: {fileID: 0}
    - target: {fileID: 4438284729955810283, guid: e0637a84c8bf6af48b71da1312ea6aae, type: 3}
      propertyPath: m_LocalPosition.y
      value: -0.010874544
      objectReference: {fileID: 0}
    - target: {fileID: 4438284729955810283, guid: e0637a84c8bf6af48b71da1312ea6aae, type: 3}
      propertyPath: m_LocalPosition.z
      value: 0
      objectReference: {fileID: 0}
    - target: {fileID: 4438284729955810283, guid: e0637a84c8bf6af48b71da1312ea6aae, type: 3}
      propertyPath: m_LocalRotation.w
      value: 0
      objectReference: {fileID: 0}
    - target: {fileID: 4438284729955810283, guid: e0637a84c8bf6af48b71da1312ea6aae, type: 3}
      propertyPath: m_LocalRotation.x
      value: -0
      objectReference: {fileID: 0}
    - target: {fileID: 4438284729955810283, guid: e0637a84c8bf6af48b71da1312ea6aae, type: 3}
      propertyPath: m_LocalRotation.y
      value: -0
      objectReference: {fileID: 0}
    - target: {fileID: 4438284729955810283, guid: e0637a84c8bf6af48b71da1312ea6aae, type: 3}
      propertyPath: m_LocalRotation.z
      value: 1
      objectReference: {fileID: 0}
    - target: {fileID: 4438284729955810283, guid: e0637a84c8bf6af48b71da1312ea6aae, type: 3}
      propertyPath: m_LocalEulerAnglesHint.x
      value: -90
      objectReference: {fileID: 0}
    - target: {fileID: 4438284729955810283, guid: e0637a84c8bf6af48b71da1312ea6aae, type: 3}
      propertyPath: m_LocalEulerAnglesHint.y
      value: 180
      objectReference: {fileID: 0}
    - target: {fileID: 4438284729955810283, guid: e0637a84c8bf6af48b71da1312ea6aae, type: 3}
      propertyPath: m_LocalEulerAnglesHint.z
      value: 0
      objectReference: {fileID: 0}
    m_RemovedComponents: []
  m_SourcePrefab: {fileID: 100100000, guid: e0637a84c8bf6af48b71da1312ea6aae, type: 3}
--- !u!4 &6801335849412503146 stripped
Transform:
  m_CorrespondingSourceObject: {fileID: 4438284729955810283, guid: e0637a84c8bf6af48b71da1312ea6aae, type: 3}
  m_PrefabInstance: {fileID: 7202600068318420353}
  m_PrefabAsset: {fileID: 0}
--- !u!1001 &7658801380031705154
PrefabInstance:
  m_ObjectHideFlags: 0
  serializedVersion: 2
  m_Modification:
    m_TransformParent: {fileID: 3193362218787991189}
    m_Modifications:
    - target: {fileID: 3953075113116442961, guid: e0637a84c8bf6af48b71da1312ea6aae, type: 3}
      propertyPath: m_Name
      value: ThreePartWall (2)
      objectReference: {fileID: 0}
    - target: {fileID: 4438284729955810283, guid: e0637a84c8bf6af48b71da1312ea6aae, type: 3}
      propertyPath: m_RootOrder
      value: 1
      objectReference: {fileID: 0}
    - target: {fileID: 4438284729955810283, guid: e0637a84c8bf6af48b71da1312ea6aae, type: 3}
      propertyPath: m_LocalScale.x
      value: 1.4067067
      objectReference: {fileID: 0}
    - target: {fileID: 4438284729955810283, guid: e0637a84c8bf6af48b71da1312ea6aae, type: 3}
      propertyPath: m_LocalScale.y
      value: 0.7341409
      objectReference: {fileID: 0}
    - target: {fileID: 4438284729955810283, guid: e0637a84c8bf6af48b71da1312ea6aae, type: 3}
      propertyPath: m_LocalScale.z
      value: 0.99145645
      objectReference: {fileID: 0}
    - target: {fileID: 4438284729955810283, guid: e0637a84c8bf6af48b71da1312ea6aae, type: 3}
      propertyPath: m_LocalPosition.x
      value: 2.6163602
      objectReference: {fileID: 0}
    - target: {fileID: 4438284729955810283, guid: e0637a84c8bf6af48b71da1312ea6aae, type: 3}
      propertyPath: m_LocalPosition.y
      value: -0.032623634
      objectReference: {fileID: 0}
    - target: {fileID: 4438284729955810283, guid: e0637a84c8bf6af48b71da1312ea6aae, type: 3}
      propertyPath: m_LocalPosition.z
      value: 0
      objectReference: {fileID: 0}
    - target: {fileID: 4438284729955810283, guid: e0637a84c8bf6af48b71da1312ea6aae, type: 3}
      propertyPath: m_LocalRotation.w
      value: 1
      objectReference: {fileID: 0}
    - target: {fileID: 4438284729955810283, guid: e0637a84c8bf6af48b71da1312ea6aae, type: 3}
      propertyPath: m_LocalRotation.x
      value: -0
      objectReference: {fileID: 0}
    - target: {fileID: 4438284729955810283, guid: e0637a84c8bf6af48b71da1312ea6aae, type: 3}
      propertyPath: m_LocalRotation.y
      value: -0
      objectReference: {fileID: 0}
    - target: {fileID: 4438284729955810283, guid: e0637a84c8bf6af48b71da1312ea6aae, type: 3}
      propertyPath: m_LocalRotation.z
      value: -0
      objectReference: {fileID: 0}
    - target: {fileID: 4438284729955810283, guid: e0637a84c8bf6af48b71da1312ea6aae, type: 3}
      propertyPath: m_LocalEulerAnglesHint.x
      value: -90
      objectReference: {fileID: 0}
    - target: {fileID: 4438284729955810283, guid: e0637a84c8bf6af48b71da1312ea6aae, type: 3}
      propertyPath: m_LocalEulerAnglesHint.y
      value: 0
      objectReference: {fileID: 0}
    - target: {fileID: 4438284729955810283, guid: e0637a84c8bf6af48b71da1312ea6aae, type: 3}
      propertyPath: m_LocalEulerAnglesHint.z
      value: 0
      objectReference: {fileID: 0}
    m_RemovedComponents: []
  m_SourcePrefab: {fileID: 100100000, guid: e0637a84c8bf6af48b71da1312ea6aae, type: 3}
--- !u!4 &6331624795637140393 stripped
Transform:
  m_CorrespondingSourceObject: {fileID: 4438284729955810283, guid: e0637a84c8bf6af48b71da1312ea6aae, type: 3}
  m_PrefabInstance: {fileID: 7658801380031705154}
  m_PrefabAsset: {fileID: 0}
