%YAML 1.1
%TAG !u! tag:unity3d.com,2011:
--- !u!114 &-3326715894390879916
MonoBehaviour:
  m_ObjectHideFlags: 11
  m_CorrespondingSourceObject: {fileID: 0}
  m_PrefabInstance: {fileID: 0}
  m_PrefabAsset: {fileID: 0}
  m_GameObject: {fileID: 0}
  m_Enabled: 1
  m_EditorHideFlags: 0
  m_Script: {fileID: 11500000, guid: d0353a89b1f911e48b9e16bdc9f2e058, type: 3}
  m_Name: 
  m_EditorClassIdentifier: 
  version: 4
--- !u!21 &2100000
Material:
  serializedVersion: 6
  m_ObjectHideFlags: 0
  m_CorrespondingSourceObject: {fileID: 0}
  m_PrefabInstance: {fileID: 0}
  m_PrefabAsset: {fileID: 0}
  m_Name: CrumblingRedBrickWallToon
  m_Shader: {fileID: -6465566751694194690, guid: 821e084ae7d4da54da9c27c82c643b24, type: 3}
  m_ShaderKeywords: 
  m_LightmapFlags: 4
  m_EnableInstancingVariants: 0
  m_DoubleSidedGI: 0
  m_CustomRenderQueue: -1
  stringTagMap: {}
  disabledShaderPasses: []
  m_SavedProperties:
    serializedVersion: 3
    m_TexEnvs:
    - Layer_502BBAC7:
        m_Texture: {fileID: 0}
        m_Scale: {x: 1, y: 1}
        m_Offset: {x: 0, y: 0}
    - Layer_9052E1C2:
        m_Texture: {fileID: 0}
        m_Scale: {x: 1, y: 1}
        m_Offset: {x: 0, y: 0}
    - Texture2D_578cc31b313d42f19f3616a9f2783bd2:
        m_Texture: {fileID: 2800000, guid: c77b44d0e45c25b42ad72cd5f4030818, type: 3}
        m_Scale: {x: 1, y: 1}
        m_Offset: {x: 0, y: 0}
    - Texture2D_90eaa762a66444cc8ae7d9f894d7159c:
        m_Texture: {fileID: 2800000, guid: c77b44d0e45c25b42ad72cd5f4030818, type: 3}
        m_Scale: {x: 1, y: 1}
        m_Offset: {x: 0, y: 0}
    - _BaseMap:
        m_Texture: {fileID: 0}
        m_Scale: {x: 1, y: 1}
        m_Offset: {x: 0, y: 0}
    - _BumpMap:
        m_Texture: {fileID: 0}
        m_Scale: {x: 1, y: 1}
        m_Offset: {x: 0, y: 0}
    - _DetailAlbedoMap:
        m_Texture: {fileID: 0}
        m_Scale: {x: 1, y: 1}
        m_Offset: {x: 0, y: 0}
    - _DetailMask:
        m_Texture: {fileID: 0}
        m_Scale: {x: 1, y: 1}
        m_Offset: {x: 0, y: 0}
    - _DetailNormalMap:
        m_Texture: {fileID: 0}
        m_Scale: {x: 1, y: 1}
        m_Offset: {x: 0, y: 0}
    - _EmissionMap:
        m_Texture: {fileID: 0}
        m_Scale: {x: 1, y: 1}
        m_Offset: {x: 0, y: 0}
    - _MainTex:
        m_Texture: {fileID: 0}
        m_Scale: {x: 1, y: 1}
        m_Offset: {x: 0, y: 0}
    - _MetallicGlossMap:
        m_Texture: {fileID: 0}
        m_Scale: {x: 1, y: 1}
        m_Offset: {x: 0, y: 0}
    - _OcclusionMap:
        m_Texture: {fileID: 0}
        m_Scale: {x: 1, y: 1}
        m_Offset: {x: 0, y: 0}
    - _ParallaxMap:
        m_Texture: {fileID: 0}
        m_Scale: {x: 1, y: 1}
        m_Offset: {x: 0, y: 0}
    - _SampleTexture2D_2a36ceca43c14f3da826da9442d7d074_Texture_1:
        m_Texture: {fileID: 10300, guid: 0000000000000000f000000000000000, type: 0}
        m_Scale: {x: 1, y: 1}
        m_Offset: {x: 0, y: 0}
    - _SampleTexture2D_5617f8753bdc4fadafcfdc7dd2138ea2_Texture_1:
        m_Texture: {fileID: 10300, guid: 0000000000000000f000000000000000, type: 0}
        m_Scale: {x: 1, y: 1}
        m_Offset: {x: 0, y: 0}
    - _SpecGlossMap:
        m_Texture: {fileID: 0}
        m_Scale: {x: 1, y: 1}
        m_Offset: {x: 0, y: 0}
    - _Texture2DAsset_d3707909f94e442491424a5ce55be3f6_Out_0:
        m_Texture: {fileID: 10300, guid: 0000000000000000f000000000000000, type: 0}
        m_Scale: {x: 1, y: 1}
        m_Offset: {x: 0, y: 0}
    - unity_Lightmaps:
        m_Texture: {fileID: 0}
        m_Scale: {x: 1, y: 1}
        m_Offset: {x: 0, y: 0}
    - unity_LightmapsInd:
        m_Texture: {fileID: 0}
        m_Scale: {x: 1, y: 1}
        m_Offset: {x: 0, y: 0}
    - unity_ShadowMasks:
        m_Texture: {fileID: 0}
        m_Scale: {x: 1, y: 1}
        m_Offset: {x: 0, y: 0}
    m_Floats:
    - Vector1_119ddc7991d14e9bb443bcac68838c08: 0
    - Vector1_138931b3364a4b16866a368a2b75ba19: 0
    - Vector1_1471a2d174714659a19ee65dc41c105c: 0.5
    - Vector1_1ba866b842f646c49c9b909b004e03c6: 0
    - Vector1_3c5302d1aa214f1aab7fcb034debcc8d: 22
    - Vector1_46f5c4dbb347428898cac5ed840c74d4: 0.24
    - Vector1_6251dfb200d44ef3ac779baab1a566aa: 0.097
    - Vector1_8ac9e2993b5a4c2193489cd01d2f6771: 1.1
    - Vector1_9d334cd178fd4474b6c3e38c2d11965d: 0.32
    - Vector1_a65c050b1a45475a9c0e765dac792123: 0
    - Vector1_a65c050b1a45475a9c0e765dac792123_1: 1
    - Vector1_c99493c269904a36b19563cf5f1c8a6d: 0
    - Vector1_dc7f8001fcf3448c86f3d86a0545e1a4: 0
    - _AlphaClip: 0
    - _Blend: 0
    - _BumpScale: 1
    - _ClearCoatMask: 0
    - _ClearCoatSmoothness: 0
    - _Cull: 2
    - _Cutoff: 0.5
    - _DetailAlbedoMapScale: 1
    - _DetailNormalMapScale: 1
    - _DstBlend: 0
    - _EnvironmentReflections: 1
    - _Fadeout: 1
    - _GlossMapScale: 0
    - _Glossiness: 0
    - _GlossyReflections: 0
    - _Metallic: 0
    - _OcclusionStrength: 1
    - _Parallax: 0.005
    - _QueueOffset: 0
    - _ReceiveShadows: 1
    - _Smoothness: 0.5
    - _SmoothnessTextureChannel: 0
    - _SpecularHighlights: 1
    - _SrcBlend: 1
    - _Surface: 0
    - _WorkflowMode: 1
    - _ZWrite: 1
    m_Colors:
    - Color_15ddf05526f3432889652459b6ba62ec: {r: 0, g: 0, b: 0, a: 0}
    - Color_56c3c740f84348d6b601c9297acc5284: {r: 0, g: 0, b: 0, a: 0}
    - Color_bc58a6c3d99049a0a58022f2f247ba96: {r: 0, g: 0, b: 0, a: 0}
    - Color_fc1cc3740e9f43a4b8e29a1ba31fc9ac: {r: 0.030392157, g: 0.007843138, b: 0.005882353, a: 1}
    - Vector2_1: {r: 1, g: 1, b: 0, a: 0}
    - Vector2_4bfa6b6837b64cdea243fa0b8c21c49d: {r: 1, g: 1, b: 1, a: 1}
    - Vector2_ed611a977f464dd8bbadb3befa149e98: {r: 1, g: 1, b: 1, a: 1}
    - Vector2_ed611a977f464dd8bbadb3befa149e98_1: {r: 1, g: 1, b: 0, a: 0}
    - Vector3_b4ca208551bf4392818734181868916c: {r: -0.91, g: 0.34, b: 0.96, a: 0}
    - _BaseColor: {r: 1, g: 1, b: 1, a: 1}
    - _Color: {r: 1, g: 1, b: 1, a: 1}
    - _EmissionColor: {r: 0, g: 0, b: 0, a: 1}
    - _SpecColor: {r: 0.19999996, g: 0.19999996, b: 0.19999996, a: 1}
  m_BuildTextureStacks: []
