%YAML 1.1
%TAG !u! tag:unity3d.com,2011:
--- !u!21 &2100000
Material:
  serializedVersion: 6
  m_ObjectHideFlags: 0
  m_CorrespondingSourceObject: {fileID: 0}
  m_PrefabInstance: {fileID: 0}
  m_PrefabAsset: {fileID: 0}
  m_Name: TestNormalShader Mat
  m_Shader: {fileID: -6465566751694194690, guid: 09b42a5306d417c41a49a9394249552a, type: 3}
  m_ShaderKeywords: MAIN_LIGHT_CALCULATE_SHADOWS _MAIN_LIGHT_SHADOWS_CASCADE _SHADOWS_SOFT
  m_LightmapFlags: 4
  m_EnableInstancingVariants: 0
  m_DoubleSidedGI: 0
  m_CustomRenderQueue: -1
  stringTagMap: {}
  disabledShaderPasses: []
  m_SavedProperties:
    serializedVersion: 3
    m_TexEnvs:
    - Layer_502BBAC7:
        m_Texture: {fileID: 0}
        m_Scale: {x: 1, y: 1}
        m_Offset: {x: 0, y: 0}
    - Layer_9052E1C2:
        m_Texture: {fileID: 0}
        m_Scale: {x: 1, y: 1}
        m_Offset: {x: 0, y: 0}
    - Texture2D_262e3c771730411f8e146502516e8d08:
        m_Texture: {fileID: 0}
        m_Scale: {x: 1, y: 1}
        m_Offset: {x: 0, y: 0}
    - Texture2D_2bb8f9d4b67b4b398355d3205eee5c3a:
        m_Texture: {fileID: 0}
        m_Scale: {x: 1, y: 1}
        m_Offset: {x: 0, y: 0}
    - Texture2D_2ce4e479acad4d93977937c19879e2f3:
        m_Texture: {fileID: 0}
        m_Scale: {x: 1, y: 1}
        m_Offset: {x: 0, y: 0}
    - Texture2D_578cc31b313d42f19f3616a9f2783bd2:
        m_Texture: {fileID: 0}
        m_Scale: {x: 1, y: 1}
        m_Offset: {x: 0, y: 0}
    - Texture2D_6c40e995f6744d4da3c51fa22896bfb4:
        m_Texture: {fileID: 2800000, guid: 682fa9d30956f67418f588c669f5b2f1, type: 3}
        m_Scale: {x: 1, y: 1}
        m_Offset: {x: 0, y: 0}
    - Texture2D_90eaa762a66444cc8ae7d9f894d7159c:
        m_Texture: {fileID: 0}
        m_Scale: {x: 1, y: 1}
        m_Offset: {x: 0, y: 0}
    - Texture2D_978bf8baeccb4b39af2dbd44a3eca334:
        m_Texture: {fileID: 0}
        m_Scale: {x: 1, y: 1}
        m_Offset: {x: 0, y: 0}
    - _BaseMap:
        m_Texture: {fileID: 0}
        m_Scale: {x: 1, y: 1}
        m_Offset: {x: 0, y: 0}
    - _BumpMap:
        m_Texture: {fileID: 0}
        m_Scale: {x: 1, y: 1}
        m_Offset: {x: 0, y: 0}
    - _DetailAlbedoMap:
        m_Texture: {fileID: 0}
        m_Scale: {x: 1, y: 1}
        m_Offset: {x: 0, y: 0}
    - _DetailMask:
        m_Texture: {fileID: 0}
        m_Scale: {x: 1, y: 1}
        m_Offset: {x: 0, y: 0}
    - _DetailNormalMap:
        m_Texture: {fileID: 0}
        m_Scale: {x: 1, y: 1}
        m_Offset: {x: 0, y: 0}
    - _EmissionMap:
        m_Texture: {fileID: 0}
        m_Scale: {x: 1, y: 1}
        m_Offset: {x: 0, y: 0}
    - _MainTex:
        m_Texture: {fileID: 0}
        m_Scale: {x: 1, y: 1}
        m_Offset: {x: 0, y: 0}
    - _MetallicGlossMap:
        m_Texture: {fileID: 0}
        m_Scale: {x: 1, y: 1}
        m_Offset: {x: 0, y: 0}
    - _OcclusionMap:
        m_Texture: {fileID: 0}
        m_Scale: {x: 1, y: 1}
        m_Offset: {x: 0, y: 0}
    - _ParallaxMap:
        m_Texture: {fileID: 0}
        m_Scale: {x: 1, y: 1}
        m_Offset: {x: 0, y: 0}
    - _SampleTexture2D_be3034a869bc44f19b2d72bec69ba305_Texture_1:
        m_Texture: {fileID: 2800000, guid: 6a562376a42565b489e5c685c003b7f3, type: 3}
        m_Scale: {x: 1, y: 1}
        m_Offset: {x: 0, y: 0}
    - _SpecGlossMap:
        m_Texture: {fileID: 0}
        m_Scale: {x: 1, y: 1}
        m_Offset: {x: 0, y: 0}
    - _Texture2DAsset_1ce1601ae1a1446292eca586aef89362_Out_0:
        m_Texture: {fileID: 10300, guid: 0000000000000000f000000000000000, type: 0}
        m_Scale: {x: 1, y: 1}
        m_Offset: {x: 0, y: 0}
    - _Texture2DAsset_64ec80e8364a49c48b4345d7df4394a6_Out_0:
        m_Texture: {fileID: 2800000, guid: 6a562376a42565b489e5c685c003b7f3, type: 3}
        m_Scale: {x: 1, y: 1}
        m_Offset: {x: 0, y: 0}
    - _Texture2DAsset_96aba78efca345dfbc3e5803cea11332_Out_0:
        m_Texture: {fileID: 0}
        m_Scale: {x: 1, y: 1}
        m_Offset: {x: 0, y: 0}
    - _Texture2DAsset_d3707909f94e442491424a5ce55be3f6_Out_0:
        m_Texture: {fileID: 10300, guid: 0000000000000000f000000000000000, type: 0}
        m_Scale: {x: 1, y: 1}
        m_Offset: {x: 0, y: 0}
    - _Texture2DAsset_f77c3558e4f147159d0b08d5d452a6be_Out_0:
        m_Texture: {fileID: 2800000, guid: 6a562376a42565b489e5c685c003b7f3, type: 3}
        m_Scale: {x: 1, y: 1}
        m_Offset: {x: 0, y: 0}
    - unity_Lightmaps:
        m_Texture: {fileID: 0}
        m_Scale: {x: 1, y: 1}
        m_Offset: {x: 0, y: 0}
    - unity_LightmapsInd:
        m_Texture: {fileID: 0}
        m_Scale: {x: 1, y: 1}
        m_Offset: {x: 0, y: 0}
    - unity_ShadowMasks:
        m_Texture: {fileID: 0}
        m_Scale: {x: 1, y: 1}
        m_Offset: {x: 0, y: 0}
    m_Floats:
    - Boolean_d8abb05c0ef3471b8151d9e2d5fe796b: 0
    - Vector1_119ddc7991d14e9bb443bcac68838c08: 0
    - Vector1_138931b3364a4b16866a368a2b75ba19: 0
    - Vector1_1471a2d174714659a19ee65dc41c105c: 0.535
    - Vector1_24878301b7bb47a7aaba69950a309924: 0
    - Vector1_34bb7e8ec9254b609970501edc44b462: 1
    - Vector1_36ace4853f78492b8143bbc454fcfcc8: -1
    - Vector1_3c5302d1aa214f1aab7fcb034debcc8d: 0
    - Vector1_46f5c4dbb347428898cac5ed840c74d4: 0.184
    - Vector1_6251dfb200d44ef3ac779baab1a566aa: 0
    - Vector1_8ac9e2993b5a4c2193489cd01d2f6771: 0
    - Vector1_954f6b6ce8344eadbfa73c50bbb738c2: 10
    - Vector1_9d334cd178fd4474b6c3e38c2d11965d: 3.33
    - Vector1_a65c050b1a45475a9c0e765dac792123: 0
    - Vector1_a65c050b1a45475a9c0e765dac792123_1: 1
    - Vector1_ac515cdc81b24075ae6ccee432fe9da3: 20
    - Vector1_b6cc7131e640480b99d454368243db30: 6
    - Vector1_b926b5e89a8f4a4ea52e1b05e6d619d2: 0.506
    - Vector1_da39eedc56a24e85b78b0713affff1d1: 0
    - Vector1_dc7f8001fcf3448c86f3d86a0545e1a4: 0.298
    - _AlphaClip: 0
    - _Blend: 0
    - _BumpScale: 1
    - _ClearCoatMask: 0
    - _ClearCoatSmoothness: 0
    - _Cull: 2
    - _Cutoff: 0.5
    - _DetailAlbedoMapScale: 1
    - _DetailNormalMapScale: 1
    - _DstBlend: 0
    - _EnvironmentReflections: 1
    - _Fadeout: 1
    - _GlossMapScale: 0
    - _Glossiness: 0
    - _GlossyReflections: 0
    - _Metallic: 0
    - _OcclusionStrength: 1
    - _Parallax: 0.005
    - _QueueOffset: 0
    - _ReceiveShadows: 1
    - _Smoothness: 0.715
    - _SmoothnessTextureChannel: 0
    - _SpecularHighlights: 1
    - _SrcBlend: 1
    - _Surface: 0
    - _WorkflowMode: 1
    - _ZWrite: 1
    m_Colors:
    - Color_02366e28632743f988720da7654042fa: {r: 0.41509432, g: 0.41509432, b: 0.41509432, a: 0}
    - Color_15ddf05526f3432889652459b6ba62ec: {r: 0, g: 0, b: 0, a: 0}
    - Color_56c3c740f84348d6b601c9297acc5284: {r: 0, g: 0, b: 0, a: 0}
    - Color_66390194dbcd4868a519631458744545: {r: 0.4811321, g: 0.4811321, b: 0.4811321, a: 1}
    - Color_6c357f71be9544d2a23d1c7a98a8a688: {r: 1, g: 1, b: 1, a: 0}
    - Color_785b6e3c55c748c28a20a1076d1e14f6: {r: 4, g: 4, b: 4, a: 0}
    - Color_bc58a6c3d99049a0a58022f2f247ba96: {r: 0.6509434, g: 0.6509434, b: 0.6509434, a: 0}
    - Color_e0bed68ac93148f6a35d4e2ac99587b1: {r: 1, g: 1, b: 1, a: 0}
    - Color_fc1cc3740e9f43a4b8e29a1ba31fc9ac: {r: 0.8301887, g: 0.8301887, b: 0.8301887, a: 0}
    - Vector2_1: {r: 1, g: 1, b: 0, a: 0}
    - Vector2_4bfa6b6837b64cdea243fa0b8c21c49d: {r: 1, g: 1, b: 0, a: 0}
    - Vector2_56d535d5d5f14a6ca6a1b9ba73009068: {r: 1, g: 1, b: 0, a: 0}
    - Vector2_b3d69667ba87430dbc2d867f2f7431d1: {r: 0, g: 0, b: 0, a: 0}
    - Vector2_c79e862fa9a14b4d86bebef27182abcc: {r: 1, g: 1, b: 0, a: 0}
    - Vector2_ed611a977f464dd8bbadb3befa149e98: {r: 1, g: 1, b: 0, a: 0}
    - Vector2_ed611a977f464dd8bbadb3befa149e98_1: {r: 1, g: 1, b: 0, a: 0}
    - _BaseColor: {r: 1, g: 1, b: 1, a: 1}
    - _Color: {r: 1, g: 1, b: 1, a: 1}
    - _EmissionColor: {r: 0, g: 0, b: 0, a: 1}
    - _L1_color: {r: 1, g: 1, b: 1, a: 1}
    - _L1_dir: {r: -0.73, g: 0.06, b: 0, a: 0}
    - _SpecColor: {r: 0.19999996, g: 0.19999996, b: 0.19999996, a: 1}
  m_BuildTextureStacks: []
--- !u!114 &3517785337366990404
MonoBehaviour:
  m_ObjectHideFlags: 11
  m_CorrespondingSourceObject: {fileID: 0}
  m_PrefabInstance: {fileID: 0}
  m_PrefabAsset: {fileID: 0}
  m_GameObject: {fileID: 0}
  m_Enabled: 1
  m_EditorHideFlags: 0
  m_Script: {fileID: 11500000, guid: d0353a89b1f911e48b9e16bdc9f2e058, type: 3}
  m_Name: 
  m_EditorClassIdentifier: 
  version: 4
