%YAML 1.1
%TAG !u! tag:unity3d.com,2011:
--- !u!21 &2100000
Material:
  serializedVersion: 6
  m_ObjectHideFlags: 0
  m_CorrespondingSourceObject: {fileID: 0}
  m_PrefabInstance: {fileID: 0}
  m_PrefabAsset: {fileID: 0}
  m_Name: TorNCopper
  m_Shader: {fileID: -6465566751694194690, guid: 821e084ae7d4da54da9c27c82c643b24, type: 3}
  m_ShaderKeywords: 
  m_LightmapFlags: 4
  m_EnableInstancingVariants: 0
  m_DoubleSidedGI: 0
  m_CustomRenderQueue: -1
  stringTagMap: {}
  disabledShaderPasses: []
  m_SavedProperties:
    serializedVersion: 3
    m_TexEnvs:
    - Texture2D_262e3c771730411f8e146502516e8d08:
        m_Texture: {fileID: 0}
        m_Scale: {x: 1, y: 1}
        m_Offset: {x: 0, y: 0}
    - Texture2D_578cc31b313d42f19f3616a9f2783bd2:
        m_Texture: {fileID: 0}
        m_Scale: {x: 1, y: 1}
        m_Offset: {x: 0, y: 0}
    - Texture2D_6c40e995f6744d4da3c51fa22896bfb4:
        m_Texture: {fileID: 2800000, guid: 682fa9d30956f67418f588c669f5b2f1, type: 3}
        m_Scale: {x: 1, y: 1}
        m_Offset: {x: 0, y: 0}
    - Texture2D_90eaa762a66444cc8ae7d9f894d7159c:
        m_Texture: {fileID: 0}
        m_Scale: {x: 1, y: 1}
        m_Offset: {x: 0, y: 0}
    - Texture2D_978bf8baeccb4b39af2dbd44a3eca334:
        m_Texture: {fileID: 0}
        m_Scale: {x: 1, y: 1}
        m_Offset: {x: 0, y: 0}
    - _BaseMap:
        m_Texture: {fileID: 0}
        m_Scale: {x: 1, y: 1}
        m_Offset: {x: 0, y: 0}
    - _BumpMap:
        m_Texture: {fileID: 0}
        m_Scale: {x: 1, y: 1}
        m_Offset: {x: 0, y: 0}
    - _DetailAlbedoMap:
        m_Texture: {fileID: 0}
        m_Scale: {x: 1, y: 1}
        m_Offset: {x: 0, y: 0}
    - _DetailMask:
        m_Texture: {fileID: 0}
        m_Scale: {x: 1, y: 1}
        m_Offset: {x: 0, y: 0}
    - _DetailNormalMap:
        m_Texture: {fileID: 0}
        m_Scale: {x: 1, y: 1}
        m_Offset: {x: 0, y: 0}
    - _EmissionMap:
        m_Texture: {fileID: 0}
        m_Scale: {x: 1, y: 1}
        m_Offset: {x: 0, y: 0}
    - _MainTex:
        m_Texture: {fileID: 0}
        m_Scale: {x: 1, y: 1}
        m_Offset: {x: 0, y: 0}
    - _MetallicGlossMap:
        m_Texture: {fileID: 0}
        m_Scale: {x: 1, y: 1}
        m_Offset: {x: 0, y: 0}
    - _OcclusionMap:
        m_Texture: {fileID: 0}
        m_Scale: {x: 1, y: 1}
        m_Offset: {x: 0, y: 0}
    - _ParallaxMap:
        m_Texture: {fileID: 0}
        m_Scale: {x: 1, y: 1}
        m_Offset: {x: 0, y: 0}
    - _SampleTexture2D_2a36ceca43c14f3da826da9442d7d074_Texture_1:
        m_Texture: {fileID: 10300, guid: 0000000000000000f000000000000000, type: 0}
        m_Scale: {x: 1, y: 1}
        m_Offset: {x: 0, y: 0}
    - _SampleTexture2D_5617f8753bdc4fadafcfdc7dd2138ea2_Texture_1:
        m_Texture: {fileID: 10300, guid: 0000000000000000f000000000000000, type: 0}
        m_Scale: {x: 1, y: 1}
        m_Offset: {x: 0, y: 0}
    - _SpecGlossMap:
        m_Texture: {fileID: 0}
        m_Scale: {x: 1, y: 1}
        m_Offset: {x: 0, y: 0}
    - _Texture2DAsset_d3707909f94e442491424a5ce55be3f6_Out_0:
        m_Texture: {fileID: 10300, guid: 0000000000000000f000000000000000, type: 0}
        m_Scale: {x: 1, y: 1}
        m_Offset: {x: 0, y: 0}
    - unity_Lightmaps:
        m_Texture: {fileID: 0}
        m_Scale: {x: 1, y: 1}
        m_Offset: {x: 0, y: 0}
    - unity_LightmapsInd:
        m_Texture: {fileID: 0}
        m_Scale: {x: 1, y: 1}
        m_Offset: {x: 0, y: 0}
    - unity_ShadowMasks:
        m_Texture: {fileID: 0}
        m_Scale: {x: 1, y: 1}
        m_Offset: {x: 0, y: 0}
    m_Floats:
    - Boolean_d8abb05c0ef3471b8151d9e2d5fe796b: 0
    - Vector1_119ddc7991d14e9bb443bcac68838c08: 0
    - Vector1_138931b3364a4b16866a368a2b75ba19: 0
    - Vector1_1471a2d174714659a19ee65dc41c105c: 0.5
    - Vector1_36ace4853f78492b8143bbc454fcfcc8: 0.8
    - Vector1_3c5302d1aa214f1aab7fcb034debcc8d: 2
    - Vector1_46f5c4dbb347428898cac5ed840c74d4: 0.91
    - Vector1_6251dfb200d44ef3ac779baab1a566aa: 0.64
    - Vector1_8ac9e2993b5a4c2193489cd01d2f6771: 0
    - Vector1_954f6b6ce8344eadbfa73c50bbb738c2: 4.1
    - Vector1_9d334cd178fd4474b6c3e38c2d11965d: 2.28
    - Vector1_a65c050b1a45475a9c0e765dac792123: 0
    - Vector1_a65c050b1a45475a9c0e765dac792123_1: 1
    - Vector1_ac515cdc81b24075ae6ccee432fe9da3: 152
    - Vector1_da39eedc56a24e85b78b0713affff1d1: 0
    - Vector1_dc7f8001fcf3448c86f3d86a0545e1a4: 0
    - _AlphaClip: 0
    - _Blend: 0
    - _BumpScale: 1
    - _ClearCoatMask: 0
    - _ClearCoatSmoothness: 0
    - _Cull: 2
    - _Cutoff: 0.5
    - _DetailAlbedoMapScale: 1
    - _DetailNormalMapScale: 1
    - _DstBlend: 0
    - _EnvironmentReflections: 1
    - _Fadeout: 1
    - _GlossMapScale: 0
    - _Glossiness: 0
    - _GlossyReflections: 0
    - _Metallic: 0.853
    - _OcclusionStrength: 1
    - _Parallax: 0.005
    - _QueueOffset: 0
    - _ReceiveShadows: 1
    - _Smoothness: 0.785
    - _SmoothnessTextureChannel: 0
    - _SpecularHighlights: 1
    - _SrcBlend: 1
    - _Surface: 0
    - _WorkflowMode: 1
    - _ZWrite: 1
    m_Colors:
    - Color_02366e28632743f988720da7654042fa: {r: 0.6415094, g: 0.33731797, b: 0.06354571, a: 0}
    - Color_15ddf05526f3432889652459b6ba62ec: {r: 0, g: 0, b: 0, a: 0}
    - Color_56c3c740f84348d6b601c9297acc5284: {r: 0, g: 0, b: 0, a: 0}
    - Color_6c357f71be9544d2a23d1c7a98a8a688: {r: 5.3403134, g: 5.3403134, b: 5.3403134, a: 1}
    - Color_785b6e3c55c748c28a20a1076d1e14f6: {r: 47.937256, g: 47.937256, b: 47.937256, a: 0}
    - Color_bc58a6c3d99049a0a58022f2f247ba96: {r: 0, g: 0, b: 0, a: 0}
    - Color_fc1cc3740e9f43a4b8e29a1ba31fc9ac: {r: 1.8301886, g: 0.8061498, b: 0.112228595, a: 0}
    - Vector2_56d535d5d5f14a6ca6a1b9ba73009068: {r: 1, g: 1, b: 0, a: 0}
    - Vector2_b3d69667ba87430dbc2d867f2f7431d1: {r: 0, g: 0, b: 0, a: 0}
    - _BaseColor: {r: 0.735849, g: 0.5236476, b: 0.2672659, a: 1}
    - _Color: {r: 1, g: 1, b: 1, a: 1}
    - _EmissionColor: {r: 0, g: 0, b: 0, a: 1}
    - _L1_color: {r: 1, g: 1, b: 1, a: 0.99}
    - _L1_dir: {r: -0.49, g: 0.91, b: 0.74, a: 0}
    - _SpecColor: {r: 0.19999996, g: 0.19999996, b: 0.19999996, a: 1}
  m_BuildTextureStacks: []
--- !u!114 &2040110409882148062
MonoBehaviour:
  m_ObjectHideFlags: 11
  m_CorrespondingSourceObject: {fileID: 0}
  m_PrefabInstance: {fileID: 0}
  m_PrefabAsset: {fileID: 0}
  m_GameObject: {fileID: 0}
  m_Enabled: 1
  m_EditorHideFlags: 0
  m_Script: {fileID: 11500000, guid: d0353a89b1f911e48b9e16bdc9f2e058, type: 3}
  m_Name: 
  m_EditorClassIdentifier: 
  version: 4
