%YAML 1.1
%TAG !u! tag:unity3d.com,2011:
--- !u!114 &11400000
MonoBehaviour:
  m_ObjectHideFlags: 0
  m_CorrespondingSourceObject: {fileID: 0}
  m_PrefabInstance: {fileID: 0}
  m_PrefabAsset: {fileID: 0}
  m_GameObject: {fileID: 0}
  m_Enabled: 1
  m_EditorHideFlags: 0
  m_Script: {fileID: 11500000, guid: 3ae922ac87ae5b247a4d524758865731, type: 3}
  m_Name: BigBullets
  m_EditorClassIdentifier: 
  name: Big Bullets
  description: BIGGER, BETTER AND STRONGER TOO!
  powerUpImage: {fileID: 21300000, guid: 1fe8082a11fb3cb448d0a6990efd09d1, type: 3}
  modifiers:
  - StatType: 2
    ModType: 0
    Value: 0.4
  - StatType: 5
    ModType: 0
    Value: 1
  - StatType: 3
    ModType: 200
    Value: 0.1
  flagModifier:
    flags: 0
  id: 0
  typeID: 0
