%YAML 1.1
%TAG !u! tag:unity3d.com,2011:
--- !u!114 &11400000
MonoBehaviour:
  m_ObjectHideFlags: 0
  m_CorrespondingSourceObject: {fileID: 0}
  m_PrefabInstance: {fileID: 0}
  m_PrefabAsset: {fileID: 0}
  m_GameObject: {fileID: 0}
  m_Enabled: 1
  m_EditorHideFlags: 0
  m_Script: {fileID: 11500000, guid: 36d6117ef4854a144b9101d1c2bb3410, type: 3}
  m_Name: TonkBoss
  m_EditorClassIdentifier: 
  CharacterPrefab: {fileID: 6294804715575449919, guid: bf5fd1fa81795624f91918d5c0fc1a58, type: 3}
  InputPrefab: {fileID: 7818300658651294636, guid: 73ed7e8c99cdefa44b596cb23b894a9a, type: 3}
