%YAML 1.1
%TAG !u! tag:unity3d.com,2011:
--- !u!114 &11400000
MonoBehaviour:
  m_ObjectHideFlags: 0
  m_CorrespondingSourceObject: {fileID: 0}
  m_PrefabInstance: {fileID: 0}
  m_PrefabAsset: {fileID: 0}
  m_GameObject: {fileID: 0}
  m_Enabled: 1
  m_EditorHideFlags: 0
  m_Script: {fileID: 11500000, guid: 36d6117ef4854a144b9101d1c2bb3410, type: 3}
  m_Name: WizzardEnemy
  m_EditorClassIdentifier: 
  CharacterPrefab: {fileID: 5591817989921647997, guid: 7ecddeaf06074784da00c53b893ae0bc, type: 3}
  InputPrefab: {fileID: 7818300658651294636, guid: 17868e568b280b548af1ee6da4aaa3d6, type: 3}
