%YAML 1.1
%TAG !u! tag:unity3d.com,2011:
--- !u!114 &11400000
MonoBehaviour:
  m_ObjectHideFlags: 0
  m_CorrespondingSourceObject: {fileID: 0}
  m_PrefabInstance: {fileID: 0}
  m_PrefabAsset: {fileID: 0}
  m_GameObject: {fileID: 0}
  m_Enabled: 1
  m_EditorHideFlags: 0
  m_Script: {fileID: 11500000, guid: e1acd994c82345fab2db8577ed1bf3bf, type: 3}
  m_Name: BirdUp_WeaponStats
  m_EditorClassIdentifier: 
  Stats:
  - Type: 5
    Value: 1
  - Type: 6
    Value: 6
  - Type: 4
    Value: 10
  - Type: 8
    Value: 10
  - Type: 1
    Value: 1
  - Type: 2
    Value: 1
  - Type: 3
    Value: 15
  - Type: 9
    Value: 0
  - Type: 10
    Value: 0
  - Type: 13
    Value: 0
  - Type: 14
    Value: 0
  - Type: 15
    Value: 0
  - Type: 16
    Value: 0
