{
    "name": "Controls",
    "maps": [
        {
            "name": "Gamepad",
            "id": "71c97921-99c0-4006-bf05-83b16bbc8363",
            "actions": [
                {
                    "name": "Move",
                    "type": "Value",
                    "id": "af06f777-5b18-4c95-854d-86eb5f0dd10b",
                    "expectedControlType": "Button",
                    "processors": "",
                    "interactions": ""
                },
                {
                    "name": "Aim",
                    "type": "Value",
                    "id": "b72b43ae-4c7a-4570-89bb-d4f51c63c591",
                    "expectedControlType": "",
                    "processors": "",
                    "interactions": ""
                },
                {
                    "name": "Fire",
                    "type": "Button",
                    "id": "07780c6b-977e-4a69-b333-519354c1cc8f",
                    "expectedControlType": "Button",
                    "processors": "",
                    "interactions": ""
                },
                {
                    "name": "Pause",
                    "type": "Button",
                    "id": "1e2a7eeb-d018-4624-84fd-8061d9d7b3ac",
                    "expectedControlType": "Button",
                    "processors": "",
                    "interactions": ""
                }
            ],
            "bindings": [
                {
                    "name": "",
                    "id": "b1a5c066-0bfb-4d96-a5c4-44e45b2d993e",
                    "path": "<Gamepad>/buttonSouth",
                    "interactions": "",
                    "processors": "",
                    "groups": "",
                    "action": "Fire",
                    "isComposite": false,
                    "isPartOfComposite": false
                },
                {
                    "name": "",
                    "id": "61604f37-b7e0-4e43-a316-01ff5cd25777",
                    "path": "<Gamepad>/rightShoulder",
                    "interactions": "",
                    "processors": "",
                    "groups": "",
                    "action": "Fire",
                    "isComposite": false,
                    "isPartOfComposite": false
                },
                {
                    "name": "",
                    "id": "db47f8d6-a753-42da-9d4b-a9326634b69f",
                    "path": "<Keyboard>/space",
                    "interactions": "",
                    "processors": "",
                    "groups": "",
                    "action": "Fire",
                    "isComposite": false,
                    "isPartOfComposite": false
                },
                {
                    "name": "",
                    "id": "3fe6fb3e-145a-4c41-baa0-0cc45f4759aa",
                    "path": "<Gamepad>/rightTrigger",
                    "interactions": "",
                    "processors": "",
                    "groups": "",
                    "action": "Fire",
                    "isComposite": false,
                    "isPartOfComposite": false
                },
                {
                    "name": "Left Stick",
                    "id": "ef4ccaff-d71f-43b8-882f-80b01327335c",
                    "path": "2DVector(mode=2)",
                    "interactions": "",
                    "processors": "",
                    "groups": "",
                    "action": "Move",
                    "isComposite": true,
                    "isPartOfComposite": false
                },
                {
                    "name": "up",
                    "id": "d901a80a-fe3f-4e95-a510-06d7f0e5c348",
                    "path": "<Gamepad>/leftStick/up",
                    "interactions": "",
                    "processors": "",
                    "groups": "",
                    "action": "Move",
                    "isComposite": false,
                    "isPartOfComposite": true
                },
                {
                    "name": "down",
                    "id": "352edeba-bc17-47ea-8570-66d87355c0af",
                    "path": "<Gamepad>/leftStick/down",
                    "interactions": "",
                    "processors": "",
                    "groups": "",
                    "action": "Move",
                    "isComposite": false,
                    "isPartOfComposite": true
                },
                {
                    "name": "left",
                    "id": "effa5e9f-1aad-4fae-9224-14518b622231",
                    "path": "<Gamepad>/leftStick/left",
                    "interactions": "",
                    "processors": "",
                    "groups": "",
                    "action": "Move",
                    "isComposite": false,
                    "isPartOfComposite": true
                },
                {
                    "name": "right",
                    "id": "8f942b98-4c5f-4daa-bea3-6227b33c87a6",
                    "path": "<Gamepad>/leftStick/right",
                    "interactions": "",
                    "processors": "",
                    "groups": "",
                    "action": "Move",
                    "isComposite": false,
                    "isPartOfComposite": true
                },
                {
                    "name": "D-Pad",
                    "id": "74ef21d3-0899-4418-8a78-1e53eb03570b",
                    "path": "2DVector",
                    "interactions": "",
                    "processors": "",
                    "groups": "",
                    "action": "Move",
                    "isComposite": true,
                    "isPartOfComposite": false
                },
                {
                    "name": "up",
                    "id": "7dc5bc4f-294a-47e3-ae96-335ec3f8a093",
                    "path": "<Gamepad>/dpad/up",
                    "interactions": "",
                    "processors": "",
                    "groups": "",
                    "action": "Move",
                    "isComposite": false,
                    "isPartOfComposite": true
                },
                {
                    "name": "down",
                    "id": "839ef384-5b71-4bb9-9034-04274aef6a85",
                    "path": "<Gamepad>/dpad/down",
                    "interactions": "",
                    "processors": "",
                    "groups": "",
                    "action": "Move",
                    "isComposite": false,
                    "isPartOfComposite": true
                },
                {
                    "name": "left",
                    "id": "a5ce8d1e-051c-438a-b54f-618cfdef615e",
                    "path": "<Gamepad>/dpad/left",
                    "interactions": "",
                    "processors": "",
                    "groups": "",
                    "action": "Move",
                    "isComposite": false,
                    "isPartOfComposite": true
                },
                {
                    "name": "right",
                    "id": "3cb9f007-e00d-4a0c-a834-b076e8e8e11b",
                    "path": "<Gamepad>/dpad/right",
                    "interactions": "",
                    "processors": "",
                    "groups": "",
                    "action": "Move",
                    "isComposite": false,
                    "isPartOfComposite": true
                },
                {
                    "name": "WASD",
                    "id": "11f9462a-1448-4d57-918e-64658296e3e0",
                    "path": "2DVector",
                    "interactions": "",
                    "processors": "",
                    "groups": "",
                    "action": "Move",
                    "isComposite": true,
                    "isPartOfComposite": false
                },
                {
                    "name": "up",
                    "id": "74673770-d75d-4dac-aa0a-cb0b58b2c4f5",
                    "path": "<Keyboard>/w",
                    "interactions": "",
                    "processors": "",
                    "groups": "",
                    "action": "Move",
                    "isComposite": false,
                    "isPartOfComposite": true
                },
                {
                    "name": "down",
                    "id": "02bfd044-37ed-4dd2-8eec-3acd3ada6e91",
                    "path": "<Keyboard>/s",
                    "interactions": "",
                    "processors": "",
                    "groups": "",
                    "action": "Move",
                    "isComposite": false,
                    "isPartOfComposite": true
                },
                {
                    "name": "left",
                    "id": "dfda4431-78af-4e21-be3a-916899745887",
                    "path": "<Keyboard>/a",
                    "interactions": "",
                    "processors": "",
                    "groups": "",
                    "action": "Move",
                    "isComposite": false,
                    "isPartOfComposite": true
                },
                {
                    "name": "right",
                    "id": "c71b2f58-3843-4084-8524-e66468cd5107",
                    "path": "<Keyboard>/d",
                    "interactions": "",
                    "processors": "",
                    "groups": "",
                    "action": "Move",
                    "isComposite": false,
                    "isPartOfComposite": true
                },
                {
                    "name": "Right Stick",
                    "id": "75c7aa06-1501-496a-a07d-8bb54ecc27c6",
                    "path": "2DVector(mode=2)",
                    "interactions": "",
                    "processors": "",
                    "groups": "",
                    "action": "Aim",
                    "isComposite": true,
                    "isPartOfComposite": false
                },
                {
                    "name": "up",
                    "id": "426d8388-65fc-4f44-95fc-0c97db6016bc",
                    "path": "<Gamepad>/rightStick/up",
                    "interactions": "",
                    "processors": "",
                    "groups": "",
                    "action": "Aim",
                    "isComposite": false,
                    "isPartOfComposite": true
                },
                {
                    "name": "down",
                    "id": "030dd155-4a38-495e-9303-4f27d4ffaae1",
                    "path": "<Gamepad>/rightStick/down",
                    "interactions": "",
                    "processors": "",
                    "groups": "",
                    "action": "Aim",
                    "isComposite": false,
                    "isPartOfComposite": true
                },
                {
                    "name": "left",
                    "id": "2ec35100-1b67-4080-a2c6-887837e30ced",
                    "path": "<Gamepad>/rightStick/left",
                    "interactions": "",
                    "processors": "",
                    "groups": "",
                    "action": "Aim",
                    "isComposite": false,
                    "isPartOfComposite": true
                },
                {
                    "name": "right",
                    "id": "13a2e320-37b3-4e60-ab3a-a7b3abb55984",
                    "path": "<Gamepad>/rightStick/right",
                    "interactions": "",
                    "processors": "",
                    "groups": "",
                    "action": "Aim",
                    "isComposite": false,
                    "isPartOfComposite": true
                },
                {
                    "name": "Arrows",
                    "id": "5b3a3c9f-75dc-4f54-8bfa-837199809cc7",
                    "path": "2DVector(mode=2)",
                    "interactions": "",
                    "processors": "",
                    "groups": "",
                    "action": "Aim",
                    "isComposite": true,
                    "isPartOfComposite": false
                },
                {
                    "name": "up",
                    "id": "a98f03f5-11f0-4ebb-9ab7-048dc8bea908",
                    "path": "<Keyboard>/upArrow",
                    "interactions": "",
                    "processors": "",
                    "groups": "",
                    "action": "Aim",
                    "isComposite": false,
                    "isPartOfComposite": true
                },
                {
                    "name": "down",
                    "id": "7026a143-72b3-475c-93ec-27ecb21915c9",
                    "path": "<Keyboard>/downArrow",
                    "interactions": "",
                    "processors": "",
                    "groups": "",
                    "action": "Aim",
                    "isComposite": false,
                    "isPartOfComposite": true
                },
                {
                    "name": "left",
                    "id": "d79badc0-1c90-4ae3-8458-8482cece5235",
                    "path": "<Keyboard>/leftArrow",
                    "interactions": "",
                    "processors": "",
                    "groups": "",
                    "action": "Aim",
                    "isComposite": false,
                    "isPartOfComposite": true
                },
                {
                    "name": "right",
                    "id": "f2e2a90d-8164-4d70-b662-79f354944f61",
                    "path": "<Keyboard>/rightArrow",
                    "interactions": "",
                    "processors": "",
                    "groups": "",
                    "action": "Aim",
                    "isComposite": false,
                    "isPartOfComposite": true
                },
                {
                    "name": "",
                    "id": "745dcfae-d031-4dba-8893-d314cfde887d",
                    "path": "<Gamepad>/start",
                    "interactions": "",
                    "processors": "",
                    "groups": "",
                    "action": "Pause",
                    "isComposite": false,
                    "isPartOfComposite": false
                },
                {
                    "name": "",
                    "id": "c5bf360b-68fd-4541-9935-87a603f347ed",
                    "path": "<Keyboard>/escape",
                    "interactions": "",
                    "processors": "",
                    "groups": "",
                    "action": "Pause",
                    "isComposite": false,
                    "isPartOfComposite": false
                }
            ]
        },
        {
            "name": "Keyboard",
            "id": "f0de1159-10de-47b2-be03-651c309d6f2f",
            "actions": [
                {
                    "name": "Move",
                    "type": "Value",
                    "id": "8b259701-8317-47ba-b228-280e85845689",
                    "expectedControlType": "Button",
                    "processors": "",
                    "interactions": ""
                },
                {
                    "name": "Fire",
                    "type": "Button",
                    "id": "2baa1292-ddcd-4aff-856c-81d1bd8a7e54",
                    "expectedControlType": "Button",
                    "processors": "",
                    "interactions": ""
                },
                {
                    "name": "Pause",
                    "type": "Button",
                    "id": "c02e588a-ff18-41f2-b5a8-520114a0ac33",
                    "expectedControlType": "Button",
                    "processors": "",
                    "interactions": ""
                }
            ],
            "bindings": [
                {
                    "name": "WASD",
                    "id": "520e2af5-5fe4-4fb0-9c1f-4fec7fd3511a",
                    "path": "2DVector",
                    "interactions": "",
                    "processors": "",
                    "groups": "",
                    "action": "Move",
                    "isComposite": true,
                    "isPartOfComposite": false
                },
                {
                    "name": "up",
                    "id": "bc4b75f6-87b2-4461-8523-1a97107dfee5",
                    "path": "<Keyboard>/w",
                    "interactions": "",
                    "processors": "",
                    "groups": "",
                    "action": "Move",
                    "isComposite": false,
                    "isPartOfComposite": true
                },
                {
                    "name": "down",
                    "id": "6514ef92-5203-4b2e-85c5-dd660d9b2654",
                    "path": "<Keyboard>/s",
                    "interactions": "",
                    "processors": "",
                    "groups": "",
                    "action": "Move",
                    "isComposite": false,
                    "isPartOfComposite": true
                },
                {
                    "name": "left",
                    "id": "fcf57556-a770-4adb-930c-9c1773091292",
                    "path": "<Keyboard>/a",
                    "interactions": "",
                    "processors": "",
                    "groups": "",
                    "action": "Move",
                    "isComposite": false,
                    "isPartOfComposite": true
                },
                {
                    "name": "right",
                    "id": "c309ac14-f889-41a2-94f1-090aee777904",
                    "path": "<Keyboard>/d",
                    "interactions": "",
                    "processors": "",
                    "groups": "",
                    "action": "Move",
                    "isComposite": false,
                    "isPartOfComposite": true
                },
                {
                    "name": "Arrows",
                    "id": "00add962-c111-4965-a57b-c0e3f6839008",
                    "path": "2DVector",
                    "interactions": "",
                    "processors": "",
                    "groups": "",
                    "action": "Move",
                    "isComposite": true,
                    "isPartOfComposite": false
                },
                {
                    "name": "up",
                    "id": "d1cd2e1c-0c26-48b1-a9f6-064f11ead48e",
                    "path": "<Keyboard>/upArrow",
                    "interactions": "",
                    "processors": "",
                    "groups": "",
                    "action": "Move",
                    "isComposite": false,
                    "isPartOfComposite": true
                },
                {
                    "name": "down",
                    "id": "d744c8e3-eb2a-4a59-9a95-602c3f54bd24",
                    "path": "<Keyboard>/downArrow",
                    "interactions": "",
                    "processors": "",
                    "groups": "",
                    "action": "Move",
                    "isComposite": false,
                    "isPartOfComposite": true
                },
                {
                    "name": "left",
                    "id": "034e06a4-9c3f-4c59-aa82-729be3b21de7",
                    "path": "<Keyboard>/leftArrow",
                    "interactions": "",
                    "processors": "",
                    "groups": "",
                    "action": "Move",
                    "isComposite": false,
                    "isPartOfComposite": true
                },
                {
                    "name": "right",
                    "id": "ba931fe6-fd2e-4eee-adbe-0bfda4b6c0f2",
                    "path": "<Keyboard>/rightArrow",
                    "interactions": "",
                    "processors": "",
                    "groups": "",
                    "action": "Move",
                    "isComposite": false,
                    "isPartOfComposite": true
                },
                {
                    "name": "",
                    "id": "b344a596-6606-4fd1-a704-ada638cc95e7",
                    "path": "<Mouse>/leftButton",
                    "interactions": "",
                    "processors": "",
                    "groups": "",
                    "action": "Fire",
                    "isComposite": false,
                    "isPartOfComposite": false
                },
                {
                    "name": "",
                    "id": "5bd9675b-4772-44aa-83f7-cd33281cf267",
                    "path": "<Keyboard>/space",
                    "interactions": "",
                    "processors": "",
                    "groups": "",
                    "action": "Fire",
                    "isComposite": false,
                    "isPartOfComposite": false
                },
                {
                    "name": "",
                    "id": "1939ac14-b8f6-4f9e-92e9-3eb25f94ca90",
                    "path": "<Keyboard>/escape",
                    "interactions": "",
                    "processors": "",
                    "groups": "",
                    "action": "Pause",
                    "isComposite": false,
                    "isPartOfComposite": false
                }
            ]
        },
        {
            "name": "Touch",
            "id": "1784d0cf-b275-4c96-9aa1-6276f640c648",
            "actions": [
                {
                    "name": "Touch0StartPos",
                    "type": "PassThrough",
                    "id": "85061f8f-0b6f-48b9-8f16-aa32785343e8",
                    "expectedControlType": "Vector2",
                    "processors": "",
                    "interactions": ""
                },
                {
                    "name": "Touch0CurrentPos",
                    "type": "PassThrough",
                    "id": "3d0292f2-4b3d-4ab9-80c8-3e19129b72e9",
                    "expectedControlType": "Vector2",
                    "processors": "",
                    "interactions": ""
                },
                {
                    "name": "Touch1StartPos",
                    "type": "PassThrough",
                    "id": "2038f3e8-9afe-4eaf-8681-c9d4f88149fb",
                    "expectedControlType": "Vector2",
                    "processors": "",
                    "interactions": ""
                },
                {
                    "name": "Touch1CurrentPos",
                    "type": "PassThrough",
                    "id": "d78f4801-21cb-4a17-96f2-d7d66479a0c3",
                    "expectedControlType": "Vector2",
                    "processors": "",
                    "interactions": ""
                },
                {
                    "name": "Touch0Phase",
                    "type": "PassThrough",
                    "id": "c8e85cff-d7d8-4e88-874e-700f9caef669",
                    "expectedControlType": "",
                    "processors": "",
                    "interactions": ""
                },
                {
                    "name": "Touch1Phase",
                    "type": "PassThrough",
                    "id": "85ff494b-152d-4adc-b23b-73550fadc967",
                    "expectedControlType": "",
                    "processors": "",
                    "interactions": ""
                }
            ],
            "bindings": [
                {
                    "name": "",
                    "id": "588b70eb-c981-41f9-8fde-4ff5bbb15fef",
                    "path": "<Touchscreen>/touch0/position",
                    "interactions": "",
                    "processors": "",
                    "groups": "",
                    "action": "Touch0CurrentPos",
                    "isComposite": false,
                    "isPartOfComposite": false
                },
                {
                    "name": "",
                    "id": "58da1ced-4eb2-4ead-add6-4dca6ee59c58",
                    "path": "<Touchscreen>/touch0/startPosition",
                    "interactions": "",
                    "processors": "",
                    "groups": "",
                    "action": "Touch0StartPos",
                    "isComposite": false,
                    "isPartOfComposite": false
                },
                {
                    "name": "",
                    "id": "479904f7-6926-4654-b6b8-a2787a03d3ad",
                    "path": "<Touchscreen>/touch1/startPosition",
                    "interactions": "",
                    "processors": "",
                    "groups": "",
                    "action": "Touch1StartPos",
                    "isComposite": false,
                    "isPartOfComposite": false
                },
                {
                    "name": "",
                    "id": "d6bcba11-4b3b-4768-99f6-1dc704718bc7",
                    "path": "<Touchscreen>/touch1/position",
                    "interactions": "",
                    "processors": "",
                    "groups": "",
                    "action": "Touch1CurrentPos",
                    "isComposite": false,
                    "isPartOfComposite": false
                },
                {
                    "name": "",
                    "id": "71d0915e-e3e1-4de1-910e-62960fafe5b7",
                    "path": "<Touchscreen>/touch0/phase",
                    "interactions": "",
                    "processors": "",
                    "groups": "",
                    "action": "Touch0Phase",
                    "isComposite": false,
                    "isPartOfComposite": false
                },
                {
                    "name": "",
                    "id": "f206d738-9268-4950-847d-24b247700de2",
                    "path": "<Touchscreen>/touch1/phase",
                    "interactions": "",
                    "processors": "",
                    "groups": "",
                    "action": "Touch1Phase",
                    "isComposite": false,
                    "isPartOfComposite": false
                }
            ]
        },
        {
            "name": "PC",
            "id": "95cdf999-38f9-444b-a95b-10e8ae9ce870",
            "actions": [
                {
                    "name": "Move",
                    "type": "Value",
                    "id": "f3104ca8-2f4a-4b1f-b488-20f1479eab4f",
                    "expectedControlType": "Button",
                    "processors": "",
                    "interactions": ""
                },
                {
                    "name": "Fire",
                    "type": "Button",
                    "id": "982645e7-d404-4727-8e96-93660e12af2f",
                    "expectedControlType": "Button",
                    "processors": "",
                    "interactions": ""
                },
                {
                    "name": "AimGamepad",
                    "type": "Value",
                    "id": "67293763-5ead-485c-ae4e-bcb49a791a0b",
                    "expectedControlType": "",
                    "processors": "",
                    "interactions": ""
                }
            ],
            "bindings": [
                {
                    "name": "WASD",
                    "id": "b9e58feb-9be2-4ab9-88a0-6e6c5ef5c863",
                    "path": "2DVector",
                    "interactions": "",
                    "processors": "",
                    "groups": "",
                    "action": "Move",
                    "isComposite": true,
                    "isPartOfComposite": false
                },
                {
                    "name": "up",
                    "id": "7fb17075-de40-491b-a13b-24db507911e1",
                    "path": "<Keyboard>/w",
                    "interactions": "",
                    "processors": "",
                    "groups": "",
                    "action": "Move",
                    "isComposite": false,
                    "isPartOfComposite": true
                },
                {
                    "name": "down",
                    "id": "aed12141-a756-4c7a-8e45-223b741ffca7",
                    "path": "<Keyboard>/s",
                    "interactions": "",
                    "processors": "",
                    "groups": "",
                    "action": "Move",
                    "isComposite": false,
                    "isPartOfComposite": true
                },
                {
                    "name": "left",
                    "id": "091bea25-3784-4bcf-8bb3-5d31b1cdfd7c",
                    "path": "<Keyboard>/a",
                    "interactions": "",
                    "processors": "",
                    "groups": "",
                    "action": "Move",
                    "isComposite": false,
                    "isPartOfComposite": true
                },
                {
                    "name": "right",
                    "id": "af1a0e2e-fd13-4e0d-ae83-b1f76eda3f9a",
                    "path": "<Keyboard>/d",
                    "interactions": "",
                    "processors": "",
                    "groups": "",
                    "action": "Move",
                    "isComposite": false,
                    "isPartOfComposite": true
                },
                {
                    "name": "Arrows",
                    "id": "91e24d1f-0c0f-4a4a-8d35-fba34d25a250",
                    "path": "2DVector",
                    "interactions": "",
                    "processors": "",
                    "groups": "",
                    "action": "Move",
                    "isComposite": true,
                    "isPartOfComposite": false
                },
                {
                    "name": "up",
                    "id": "f80deb86-9edf-445d-9a65-43162a3a4b93",
                    "path": "<Keyboard>/upArrow",
                    "interactions": "",
                    "processors": "",
                    "groups": "",
                    "action": "Move",
                    "isComposite": false,
                    "isPartOfComposite": true
                },
                {
                    "name": "down",
                    "id": "6205d16e-e9da-423b-ab20-8e4556e60f66",
                    "path": "<Keyboard>/downArrow",
                    "interactions": "",
                    "processors": "",
                    "groups": "",
                    "action": "Move",
                    "isComposite": false,
                    "isPartOfComposite": true
                },
                {
                    "name": "left",
                    "id": "f2edd205-8401-44e4-93c4-1bbc27e3262b",
                    "path": "<Keyboard>/leftArrow",
                    "interactions": "",
                    "processors": "",
                    "groups": "",
                    "action": "Move",
                    "isComposite": false,
                    "isPartOfComposite": true
                },
                {
                    "name": "right",
                    "id": "034b84d5-573b-431d-bebf-8d43b31b2c70",
                    "path": "<Keyboard>/rightArrow",
                    "interactions": "",
                    "processors": "",
                    "groups": "",
                    "action": "Move",
                    "isComposite": false,
                    "isPartOfComposite": true
                },
                {
                    "name": "",
                    "id": "714e2759-3272-4eb4-a98d-5dbecc3c82e7",
                    "path": "<Mouse>/leftButton",
                    "interactions": "",
                    "processors": "",
                    "groups": "",
                    "action": "Fire",
                    "isComposite": false,
                    "isPartOfComposite": false
                },
                {
                    "name": "",
                    "id": "a70a7905-e2f7-4f49-98a9-0d6ec42bc3c5",
                    "path": "<Keyboard>/space",
                    "interactions": "",
                    "processors": "",
                    "groups": "",
                    "action": "Fire",
                    "isComposite": false,
                    "isPartOfComposite": false
                },
                {
                    "name": "Right Stick",
                    "id": "af0b6c3c-6358-4269-bfff-973c4fb48e21",
                    "path": "2DVector(mode=2)",
                    "interactions": "",
                    "processors": "",
                    "groups": "",
                    "action": "AimGamepad",
                    "isComposite": true,
                    "isPartOfComposite": false
                },
                {
                    "name": "up",
                    "id": "c548493d-3f8c-41a8-bb3d-f7f052e887df",
                    "path": "<Gamepad>/rightStick/up",
                    "interactions": "",
                    "processors": "",
                    "groups": "",
                    "action": "AimGamepad",
                    "isComposite": false,
                    "isPartOfComposite": true
                },
                {
                    "name": "down",
                    "id": "25567554-40b8-4415-80f0-1b4954c9e4a2",
                    "path": "<Gamepad>/rightStick/down",
                    "interactions": "",
                    "processors": "",
                    "groups": "",
                    "action": "AimGamepad",
                    "isComposite": false,
                    "isPartOfComposite": true
                },
                {
                    "name": "left",
                    "id": "37f85338-72ad-431a-90c6-738a35b5903a",
                    "path": "<Gamepad>/rightStick/left",
                    "interactions": "",
                    "processors": "",
                    "groups": "",
                    "action": "AimGamepad",
                    "isComposite": false,
                    "isPartOfComposite": true
                },
                {
                    "name": "right",
                    "id": "b54fb69d-5514-42ec-89a7-6f1fbfdc6000",
                    "path": "<Gamepad>/rightStick/right",
                    "interactions": "",
                    "processors": "",
                    "groups": "",
                    "action": "AimGamepad",
                    "isComposite": false,
                    "isPartOfComposite": true
                },
                {
                    "name": "Left Stick",
                    "id": "10a2c3fa-a673-484c-8125-5f8b5b44f302",
                    "path": "2DVector(mode=2)",
                    "interactions": "",
                    "processors": "",
                    "groups": "",
                    "action": "Move",
                    "isComposite": true,
                    "isPartOfComposite": false
                },
                {
                    "name": "up",
                    "id": "f14b90f3-a41d-47fb-8c07-32ac35233661",
                    "path": "<Gamepad>/leftStick/up",
                    "interactions": "",
                    "processors": "",
                    "groups": "",
                    "action": "Move",
                    "isComposite": false,
                    "isPartOfComposite": true
                },
                {
                    "name": "down",
                    "id": "f2b47411-653c-4fa9-99d5-507f1e622b04",
                    "path": "<Gamepad>/leftStick/down",
                    "interactions": "",
                    "processors": "",
                    "groups": "",
                    "action": "Move",
                    "isComposite": false,
                    "isPartOfComposite": true
                },
                {
                    "name": "left",
                    "id": "84cd6607-1718-44be-b08c-c0ae280d5d29",
                    "path": "<Gamepad>/leftStick/left",
                    "interactions": "",
                    "processors": "",
                    "groups": "",
                    "action": "Move",
                    "isComposite": false,
                    "isPartOfComposite": true
                },
                {
                    "name": "right",
                    "id": "91f0ea8b-fef0-4f18-868a-3614eb3ca544",
                    "path": "<Gamepad>/leftStick/right",
                    "interactions": "",
                    "processors": "",
                    "groups": "",
                    "action": "Move",
                    "isComposite": false,
                    "isPartOfComposite": true
                },
                {
                    "name": "D-Pad",
                    "id": "eb13e066-3765-446f-8f11-91cc5639f47c",
                    "path": "2DVector",
                    "interactions": "",
                    "processors": "",
                    "groups": "",
                    "action": "Move",
                    "isComposite": true,
                    "isPartOfComposite": false
                },
                {
                    "name": "up",
                    "id": "e617f545-efee-45b6-902f-c1a6f67b8b1f",
                    "path": "<Gamepad>/dpad/up",
                    "interactions": "",
                    "processors": "",
                    "groups": "",
                    "action": "Move",
                    "isComposite": false,
                    "isPartOfComposite": true
                },
                {
                    "name": "down",
                    "id": "a19a2387-5e87-4f06-8949-6a920fa277cf",
                    "path": "<Gamepad>/dpad/down",
                    "interactions": "",
                    "processors": "",
                    "groups": "",
                    "action": "Move",
                    "isComposite": false,
                    "isPartOfComposite": true
                },
                {
                    "name": "left",
                    "id": "9402bba1-37b1-4267-93cb-755f0a52105e",
                    "path": "<Gamepad>/dpad/left",
                    "interactions": "",
                    "processors": "",
                    "groups": "",
                    "action": "Move",
                    "isComposite": false,
                    "isPartOfComposite": true
                },
                {
                    "name": "right",
                    "id": "f336dfd9-013e-4ea2-ac3e-a550eceb55a8",
                    "path": "<Gamepad>/dpad/right",
                    "interactions": "",
                    "processors": "",
                    "groups": "",
                    "action": "Move",
                    "isComposite": false,
                    "isPartOfComposite": true
                },
                {
                    "name": "",
                    "id": "7c8c4342-efcc-4863-8ed0-4c5861d9bba7",
                    "path": "<Gamepad>/buttonSouth",
                    "interactions": "",
                    "processors": "",
                    "groups": "",
                    "action": "Fire",
                    "isComposite": false,
                    "isPartOfComposite": false
                },
                {
                    "name": "",
                    "id": "77b5af45-ffeb-4f43-b2bf-22e2d1fcb055",
                    "path": "<Gamepad>/rightShoulder",
                    "interactions": "",
                    "processors": "",
                    "groups": "",
                    "action": "Fire",
                    "isComposite": false,
                    "isPartOfComposite": false
                }
            ]
        }
    ],
    "controlSchemes": []
}